*** Life<Cell> 6x6 ***

Generation = 0, Population = 10.
0-----
---00-
--00-0
0---0-
--0-0-
------

Generation = 1, Population = 16.
-0-00-
0---1-
001---
-0--1-
00--10
--0-0-

Generation = 2, Population = 19.
---1-0
100-*0
-1*0--
0--0*-
1--0*1
0---1-

Generation = 3, Population = 17.
00--01
*1--.-
0-.-00
1--1.-
-00-.*
10--*-

Generation = 4, Population = 13.
--011*
.-0-.-
--.-11
*---.-
1-1-*.
*--0.-

Generation = 5, Population = 13.
-0---.
.11-.-
0-.0**
.00-*0
---0..
.0--.-

*** Life<Cell> 7x7 ***

Generation = 0, Population = 10.
-------
0---0--
--0-0--
----0-0
------0
---0---
--00---

Generation = 1, Population = 25.
0---0--
-00010-
00---00
--001-1
---0001
---10-0
-01-0--

Generation = 2, Population = 23.
--0-1--
0---*--
1-0-0--
0-11---
---1--*
-0--101
01*0100

Generation = 3, Population = 28.
00--*0-
10-0*0-
--1010-
1-----1
00-*--*
-1-1-1*
1**-*1-

Generation = 4, Population = 24.
--0-.-0
--0-.10
--*1*--
*-1-1-*
---.0-*
0-0*1-*
***0*--

Generation = 5, Population = 22.
-010.-1
-0--**-
10*-*--
.-*1--.
---.--*
11-.*-.
*..1*10

*** Life<Cell> 10x10 ***

Generation = 0, Population = 8.
--0------0
----0-----
------0---
-0---0----
----------
---0------
----------
----------
----------
0---------

Generation = 1, Population = 23.
-0-00---0-
--00-00--0
-0--0--0--
0-0-0-----
-0-0-0----
--0-0-----
---0------
----------
0---------
-0--------

Generation = 2, Population = 20.
0-0-1-00--
-01--11---
--0-1---00
---01--0--
------0---
----------
----------
0--0------
----------
--0-------

Generation = 3, Population = 35.
-01--0-10-
-1*00*--00
--10*-0-11
---1-0---0
---000----
------0---
0--0------
-00-0-----
0-00------
-0-0------

Generation = 4, Population = 22.
0----1-*--
0-.11.--1-
----.----*
-----1---1
--0------0
0---0--0--
------0---
01---0----
----------
--010-----

Generation = 5, Population = 46.
10-0---.--
11.**.----
0--0*0---*
--0-1-0-0-
00-000-001
-000-0--00
-0--0-----
1*0-0-----
000000----
-01-10----

*** Life<Cell> 10x10 ***

Generation = 0, Population = 8.
--------0-
-0--------
----------
0---------
-------0--
-0--------
----0-----
----------
-0--------
---------0

Generation = 2, Population = 22.
------0-0-
1--0------
-------00-
0-0-------
----00---0
1--0------
-10---00--
-1-------0
---00-----
-------0--

Generation = 4, Population = 24.
----0--00-
-1---0----
----0---*-
--0-1-----
-0-0----10
-----1---1
0-------1-
1.-------0
-----1-1--
-0---0-0--

Generation = 6, Population = 46.
--0--0-*-1
--1-1--1--
-111*--*.1
000-.-0--1
10-01*01.0
*-011----*
*-10-11*11
..--------
11-1-.-.11
10--------

Generation = 8, Population = 42.
01----0.1-
-1--.0-1--
---1.1-..*
0-0-.---1-
*---*.-..0
*10-1*--0.
*1101.1*11
..-00----0
1----*0..*
-011---1--

Generation = 10, Population = 46.
-1*-00-.-*
1.*-.*---1
----..-.**
----.11---
*-0-..1**-
..0*..0--*
*..****.*1
*.-000010-
1----**.**
1-1*---1-1

*** Life<Cell> 10x10 ***

Generation = 0, Population = 19.
----0--0--
0-----0---
-0--0----0
--------0-
----0-----
-0--------
-----0--0-
----0----0
--0-----0-
-0--0--0--

Generation = 2, Population = 46.
-00--100--
0-0-0-----
--11--1--0
01--------
-10-010-10
---01---10
--000-110-
--1-0-0--0
0---000-0-
-001-110--

Generation = 4, Population = 35.
0*-1-.--1-
01--0-0---
00-.01----
--------10
0-*-0--0--
0---*000.-
--------0-
11.-01----
0-0---*---
0--.11.-0-

Generation = 6, Population = 48.
-*--0*1-1-
*.--*-0--0
00-.-*1-1-
-*-0-10-.*
*1.-*-1--1
-1--*00-*0
-------10-
1*.--.0-1-
--01-*.1--
**1***.*0-

Generation = 8, Population = 48.
0.1--.-11-
.*0-*0-11-
-0-.-.*011
*.00---1.*
*..0*----1
1.--*---.-
10-1---.--
*.*11.00.1
--0-1*..10
.**.**.**1

Generation = 10, Population = 40.
0..-1.*---
..-0.-1.*-
0*-*1*.0.-
*.-0--1*.*
..*0.----*
-.0-.--0.-
*--.-0**1-
*...1.-*.*
1---....1*
.**.***..1

*** Life<Cell> 15x15 ***

Generation = 0, Population = 20.
-----0--0------
----0----------
--------------0
----0-0--------
----0-------0--
-0000-0--------
-----00--------
0------0-------
---------------
----0------0-0-
---------------
---------------
---------------
---------------
---------------

Generation = 2, Population = 51.
---0-0110-0---0
--0-0----------
----00--0-----0
-0-1*---0------
--1--1----0----
-*0001-10------
---1---00---0--
01-0-10--0-0-0-
-----00--------
0-0---00-0-0-0-
---------------
----0------0-0-
---------------
---------------
---------------

Generation = 4, Population = 57.
-0-------0----0
0101--1-0------
------1-*-0-0--
--1..--1*-1----
0-.--*--0-----0
-.*--1110-10-0-
-00------00---0
-.0*--0----0---
----1-------0--
00010-0*00---0-
-----01--------
0------0-------
---------------
----0------0-0-
---------------

Generation = 6, Population = 81.
-*-1--*11010---
-.-*-1.0*------
11-11*.1.---0-0
-11..-0..0.110-
01.--*-1010----
1..--1--0---00-
-*-1-*-1---10--
1.0*0---0-00-0-
----.1-1-1-----
*00----.-*10---
---1----1---0--
-1-0-1001--0---
-----00--------
0-0---00-0-0-0-
---------------

Generation = 8, Population = 71.
1.-.-1***0---00
*.1.*..-.-1110-
.--1-*...1-0*--
-....--..-.*.-0
--.--.1.*.--0-0
*..*1--**0*10-1
-.-.-.-11----10
-.*.-----------
01--.1--1.-----
.--101-*0.-*0--
10-*-*--*-----0
----0---1------
----1--1----0--
-001--0----0-0-
-----01--------

Generation = 10, Population = 110.
**1*-***.-1*-0-
**1**..*.-..*0-
.1--*.*.*1**.-1
0..*.11..*...*-
-1.1-.1...*1*00
.**..*-..0.1-*1
1.**-.---1-*-*-
*...-*----1---1
-.0-.**-..-1-0-
.0-10.-.-.*.*11
*-0*0**0.101--0
-*--*110*-0-10-
0110*1--000----
1*-.00---0-0-0-
---1-*1-0---0--

*** Life<Cell> 20x20 ***

Generation = 0, Population = 44.
---0-0-------0-0----
----0-----------000-
--0-0--0-----0-----0
0------0--------00--
0-----0--------0----
------------00---00-
000-0-0--------00---
---00------0-------0
00---0--0-----------
--0-0-0--------00---
--------------------
--------------------
--------------------
--------------------
--------------------
--------------------
--------------------
--------------------
--------------------
--------------------

Generation = 2, Population = 98.
-01-1------0-0---1-0
0-1---01------00-0*0
--00*----0-0-0-0-0-0
*-1-10---0--0100*-11
-10-0-000------000-0
0--01--0--0---1--*--
-0-1-0-------11*-01-
-0--00---0--1--11-10
-*--1--1--0----11---
1-000-0-1--0-01--100
00---0--0-----------
--0-0-0--------00---
--------------------
--------------------
--------------------
--------------------
--------------------
--------------------
--------------------
--------------------

Generation = 4, Population = 97.
0*1-1-1----0-0-1-*--
0------.1-----*-1-.*
01*0.---1*-0-*-01---
.-1-.-------*.--*-.*
**-10---*-10-1-0---*
--0---0-01---1.10*-1
-*1.-*110-100*..----
-------11------*1---
1.0--00--0--1--1----
*-*---0-.-00-*.--*0*
0*1-1-1--------11---
---00------0-------0
00---0--0-----------
--0-0-0--------00---
--------------------
--------------------
--------------------
--------------------
--------------------
--------------------

Generation = 6, Population = 130.
0**-1------0----1*1*
01--*-*..-0--1.-.-*.
-1.*.--*1*--1.-*.-0-
.-.-.-0--*1-..01.*..
..-.--**.-.*-*--*1-*
--*0--*--.1-1-*10.-*
*.-*-...*1.-0*.*-1-1
1--1-01-1--1--1..1--
..-1**-1----1-1.11-1
*-.-1--1.0--1..1-.0*
0*-1.-*--0--011..010
000-001--010---**-1-
-*--1--1--0----11---
1-000-0-1--0-01--100
00---0--0-----------
--0-0-0--------00---
--------------------
--------------------
--------------------
--------------------

Generation = 8, Population = 129.
-..-*-*-0--011--.**.
0*10*-..*0000-.1.-..
0*.**--.-.-11*0..1*1
.1.-*--*-*.-..-1.**.
*.1.-1...-..-.1-*10.
11.0--.1-.1-.-.*-***
..-.-......--*.***-*
*1-110.*.-1-*-..*-*1
*.--*.-.010-*-.*.--*
.-*-.00..--*-*.-1*0.
*.-1*0.0*-----...*--
-0**0--01-*--1-..-*-
*.-----------------1
*0------.---0*.--*0-
0*1-1-1--------11---
---00------0-------0
00---0--0-----------
--0-0-0--------00---
--------------------
--------------------

Generation = 10, Population = 166.
1**0*-.-*0-0*.-*....
0*--.1***0-0**.1*1..
-....1-.*.--..**.-..
...-*1*.-*.1*.*-....
*.-*1-*.*1**0*1-.1-.
-**--1*1**1-.-*.-...
*.-.*.**.*.00.**..-.
**0..*..*-.1*-*..*.*
*.--*.-.----.0.*.*1*
.-*-.0*..*1.-..-..*.
*.*1.-.0*1-10-.**.-0
--..00---0.----..-*0
*.---00*1----0011-11
.--0---0*---*..*1.*-
-.*1*01--------..011
00--00---0--1--**-10
-*--1--1--0----11---
1-000-0-1--0-01--100
00---0--0-----------
--0-0-0--------00---

*** Life<Cell> 15x15 ***

Generation = 0, Population = 40.
------0-----0--
-000-0----0-0--
----0---------0
------0--0--0--
------0---0---0
----00------0-0
-----0---0--00-
----------0---0
-00-000--------
----0-00-----0-
-----0-0-------
---------------
---------------
---00----------
-------0-------

Generation = 1, Population = 85.
-000---0--0010-
01-10----0--100
-00---0--00--0-
----00100--0-0-
----0-10---0-01
---01----000101
-----10-0--0-10
-00-0-0----00--
011-------0--00
-0001---0---0-0
------010----0-
-----0-0-------
---00----------
--0110-0-------
---00-0-0------

Generation = 2, Population = 78.
------0-0-1-*--
1*--1000010---1
--1---1---1----
-000---11--1---
-----0---0--01-
--01---0-1----*
-0000*---------
-----0100---10-
1-*---0-00--01-
--1-*00-1000--1
-0000-1*-0-----
---0--01-----0-
-----0---------
-01--10--------
-----0-0-0-----

Generation = 3, Population = 113.
00--0-1010*-.00
**-1*---1-1010-
00*-0-*0--*---0
011100-**----0-
-0--0-1--10-1*-
------0--*0-1-.
0111-*--00--010
00-0--*----0--0
--.000-01------
0--0*-10---1---
0111-0*.01-0-00
-0-1----00--0-0
-0000100-----0-
01*11*1--0-----
-00-010---0----

Generation = 4, Population = 93.
--0-1-*-*-*-.-1
..0**0-0*1*---1
1-.--0*-00*-00-
--*--1-.*----1-
-1--10*------*1
0-011-10-.---0*
-*---*001------
--0--0*--00---1
-1.111--*0----0
1--1.---100*001
-*-*01*.---101-
----------0---1
-11-1*11-------
1-.*-.*-0----0-
---0-*-0---0---

Generation = 5, Population = 100.
-010*0*0*0*0.0*
.*-..--1.*.01-*
-0*0-1.011*-1--
0-.1--1.*-0----
--0--1.-0---1.-
--1---*--.--1-*
-*11-.-1*-0--1-
-0---1.-0-10-0*
--.----0.1000--
-01-.-10-1-.11-
-.-*--..010-1-0
--01---1-0--0--
-**0****--0--00
--.*-..--0-00-0
0-01-.0---0-00-
