*** Life<ConwayCell> 2x15 ***

Generation = 0, Population = 12.
...*.*..*..**..
***.*...*...*.*

Generation = 1, Population = 14.
.****......***.
.****......***.

Generation = 2, Population = 8.
.*..*......*.*.
.*..*......*.*.

Generation = 3, Population = 0.
...............
...............

Generation = 4, Population = 0.
...............
...............

Generation = 5, Population = 0.
...............
...............

Generation = 6, Population = 0.
...............
...............

Generation = 7, Population = 0.
...............
...............

Generation = 8, Population = 0.
...............
...............

Generation = 9, Population = 0.
...............
...............

Generation = 10, Population = 0.
...............
...............

*** Life<ConwayCell> 4x5 ***

Generation = 0, Population = 10.
**...
.*.*.
*...*
.****

Generation = 1, Population = 11.
***..
.**..
*...*
.****

Generation = 2, Population = 10.
*.*..
..**.
*...*
.****

Generation = 3, Population = 10.
.***.
..**.
....*
.****

Generation = 4, Population = 9.
.*.*.
.*..*
.*..*
..***

Generation = 5, Population = 10.
..*..
**.**
.*..*
..***

*** Life<ConwayCell> 15x20 ***

Generation = 0, Population = 3.
............*.......
....................
....................
....................
....................
....................
....................
....................
....................
....................
..............*.....
....................
....................
.....*..............
....................

Generation = 1, Population = 0.
....................
....................
....................
....................
....................
....................
....................
....................
....................
....................
....................
....................
....................
....................
....................

Generation = 2, Population = 0.
....................
....................
....................
....................
....................
....................
....................
....................
....................
....................
....................
....................
....................
....................
....................

Generation = 3, Population = 0.
....................
....................
....................
....................
....................
....................
....................
....................
....................
....................
....................
....................
....................
....................
....................

Generation = 4, Population = 0.
....................
....................
....................
....................
....................
....................
....................
....................
....................
....................
....................
....................
....................
....................
....................

Generation = 5, Population = 0.
....................
....................
....................
....................
....................
....................
....................
....................
....................
....................
....................
....................
....................
....................
....................

*** Life<ConwayCell> 1x4 ***

Generation = 0, Population = 3.
**.*

Generation = 1, Population = 0.
....

Generation = 2, Population = 0.
....

Generation = 3, Population = 0.
....

Generation = 4, Population = 0.
....

Generation = 5, Population = 0.
....

*** Life<ConwayCell> 5x5 ***

Generation = 0, Population = 4.
.....
.*...
..**.
.*...
.....

Generation = 1, Population = 4.
.....
..*..
.**..
..*..
.....

Generation = 2, Population = 7.
.....
.**..
.***.
.**..
.....

Generation = 3, Population = 6.
.....
.*.*.
*..*.
.*.*.
.....

Generation = 4, Population = 6.
.....
..*..
**.**
..*..
.....

Generation = 5, Population = 8.
.....
.***.
.*.*.
.***.
.....

*** Life<ConwayCell> 13x13 ***

Generation = 0, Population = 8.
.............
.............
.....*.......
.............
.....*.......
......*......
......**.....
.....*.......
......*......
......*......
.............
.............
.............

Generation = 1, Population = 10.
.............
.............
.............
.............
.............
.....***.....
.....***.....
.....*.*.....
.....**......
.............
.............
.............
.............

Generation = 2, Population = 9.
.............
.............
.............
.............
......*......
.....*.*.....
....*...*....
....*..*.....
.....**......
.............
.............
.............
.............

Generation = 3, Population = 14.
.............
.............
.............
.............
......*......
.....***.....
....*****....
....*.**.....
.....**......
.............
.............
.............
.............

Generation = 4, Population = 12.
.............
.............
.............
.............
.....***.....
....*...*....
....*...*....
....*...*....
.....***.....
.............
.............
.............
.............

Generation = 5, Population = 20.
.............
.............
.............
......*......
.....***.....
....*.*.*....
...***.***...
....*.*.*....
.....***.....
......*......
.............
.............
.............

Generation = 6, Population = 12.
.............
.............
.............
.....***.....
.............
...*.....*...
...*.....*...
...*.....*...
.............
.....***.....
.............
.............
.............

Generation = 7, Population = 12.
.............
.............
......*......
......*......
......*......
.............
..***...***..
.............
......*......
......*......
......*......
.............
.............

*** Life<ConwayCell> 10x10 ***

Generation = 0, Population = 10.
*.........
.*........
.**.......
..**......
....***...
.....*....
..........
..........
..........
..........

Generation = 1, Population = 17.
..........
***.......
.*.*......
.*****....
...****...
....***...
..........
..........
..........
..........

Generation = 2, Population = 9.
.*........
***.......
..........
.*....*...
..........
...*..*...
.....*....
..........
..........
..........

Generation = 3, Population = 8.
***.......
***.......
*.*.......
..........
..........
..........
..........
..........
..........
..........

Generation = 4, Population = 5.
*.*.......
...*......
*.*.......
..........
..........
..........
..........
..........
..........
..........

Generation = 5, Population = 2.
..........
..**......
..........
..........
..........
..........
..........
..........
..........
..........

Generation = 6, Population = 0.
..........
..........
..........
..........
..........
..........
..........
..........
..........
..........

Generation = 7, Population = 0.
..........
..........
..........
..........
..........
..........
..........
..........
..........
..........

Generation = 8, Population = 0.
..........
..........
..........
..........
..........
..........
..........
..........
..........
..........

Generation = 9, Population = 0.
..........
..........
..........
..........
..........
..........
..........
..........
..........
..........

Generation = 10, Population = 0.
..........
..........
..........
..........
..........
..........
..........
..........
..........
..........

*** Life<ConwayCell> 10x10 ***

Generation = 0, Population = 12.
..........
.***......
.***......
.***......
....***...
..........
..........
..........
..........
..........

Generation = 1, Population = 12.
..*.......
.*.*......
*...*.....
.*...*....
..****....
.....*....
..........
..........
..........
..........

Generation = 2, Population = 17.
..*.......
.***......
***.*.....
.**..*....
..**.**...
...*.*....
..........
..........
..........
..........

Generation = 3, Population = 17.
.***......
*.........
*...*.....
*....**...
.*.*.**...
..**.**...
..........
..........
..........
..........

*** Life<ConwayCell> 3x3 ***

Generation = 0, Population = 3.
...
.**
.*.

Generation = 1, Population = 4.
...
.**
.**

*** Life<ConwayCell> 4x4 ***

Generation = 0, Population = 4.
....
.**.
.**.
....

Generation = 1, Population = 4.
....
.**.
.**.
....

Generation = 2, Population = 4.
....
.**.
.**.
....

Generation = 3, Population = 4.
....
.**.
.**.
....

Generation = 4, Population = 4.
....
.**.
.**.
....

Generation = 5, Population = 4.
....
.**.
.**.
....

*** Life<ConwayCell> 2x2 ***

Generation = 0, Population = 1.
..
.*

Generation = 1, Population = 0.
..
..

Generation = 2, Population = 0.
..
..

Generation = 3, Population = 0.
..
..

Generation = 4, Population = 0.
..
..

Generation = 5, Population = 0.
..
..

*** Life<ConwayCell> 5x5 ***

Generation = 0, Population = 8.
.....
.***.
..***
..**.
.....

Generation = 1, Population = 6.
..*..
.*..*
....*
..*.*
.....

*** Life<ConwayCell> 3x3 ***

Generation = 0, Population = 2.
...
.**
...

Generation = 1, Population = 0.
...
...
...

Generation = 2, Population = 0.
...
...
...

Generation = 3, Population = 0.
...
...
...

Generation = 4, Population = 0.
...
...
...

Generation = 5, Population = 0.
...
...
...

*** Life<ConwayCell> 4x4 ***

Generation = 0, Population = 4.
....
.**.
.**.
....

Generation = 1, Population = 4.
....
.**.
.**.
....

*** Life<ConwayCell> 5x5 ***

Generation = 0, Population = 8.
.....
.***.
..***
..**.
.....

Generation = 1, Population = 6.
..*..
.*..*
....*
..*.*
.....

*** Life<ConwayCell> 6x6 ***

Generation = 0, Population = 6.
......
.**...
.**...
.**...
......
......

Generation = 2, Population = 6.
......
.**...
*..*..
.**...
......
......

*** Life<ConwayCell> 4x4 ***

Generation = 0, Population = 4.
....
.**.
.**.
....

Generation = 1, Population = 4.
....
.**.
.**.
....

*** Life<ConwayCell> 5x5 ***

Generation = 0, Population = 5.
.....
.**..
..**.
...*.
.....

Generation = 1, Population = 7.
.....
.***.
.*.*.
..**.
.....

*** Life<ConwayCell> 6x6 ***

Generation = 0, Population = 6.
......
.**...
.**...
.**...
......
......

Generation = 2, Population = 6.
......
.**...
*..*..
.**...
......
......
