7

8 4
12
3 3
5 2
1 2
6 3
0 1
7 1
7 2
1 0
7 0
7 0
6 1
5 2
7 3

3 1
2
2 0
0 0
9 1

4 1
1
1 0
5 1

6 2
10
3 1
2 1
4 0
2 1
5 1
0 1
4 0
5 1
4 0
4 0
1 3

3 5
13
2 0
0 1
1 3
1 2
0 4
1 3
0 3
1 0
0 1
0 3
0 1
1 2
2 3
6 2

9 3
9
5 0
8 2
7 2
6 1
1 1
4 0
4 2
0 1
1 2
1 3

8 5
15
1 3
7 1
7 2
0 0
5 4
0 1
2 2
4 4
2 2
1 4
3 3
1 3
6 1
6 0
2 4
8 3
