7

10 10
21
9 9
8 8
1 2
9 8
0 3
4 8
5 4
2 3
3 3
9 2
2 8
2 3
1 9
6 7
3 2
0 0
9 8
7 5
5 5
5 3
1 5
20 10

5 5
20
0 0
0 1
0 2
0 3
0 4
0 0
0 1
0 2
0 3
0 4
1 0
1 1
1 2
1 3
1 4
1 0
1 1
1 2
1 3
1 4
5 1

3 3
5
0 1
1 0
1 2
1 2
2 1
4 1

46 46
26
30 34
29 33
1 2
39 45
0 3
40 4
45 44
2 3
3 3
23 28
32 45
45 45
18 17
45 45
45 45
3 2
0 0
9 8
40 40
19 19
20 20
33 33
45 45
3 2
0 0
9 8
10 10

2 2
3
0 0
0 0
0 0
3 1

15 21
29
12 14
14 18
12 19
2 3
2 4
5 9
6 11
7 12
14 14
14 1
14 0
14 0
12 20
14 0
12 20
14 0
12 20
14 0
12 20
14 0
12 20
14 0
12 20
14 0
12 20
14 0
12 20
14 0
12 20
15 3

10 12
8
1 0
2 0
3 0
2 1
2 2
2 3
4 0
9 2
10 2
