7

6 6
14
5 3
2 1
1 5
0 1
0 4
3 0
3 5
2 2
1 4
2 2
2 2
5 2
0 2
3 3
6 5

9 9
33
1 0
0 3
2 0
3 2
4 1
3 2
1 3
3 3
2 4
0 7
4 7
6 3
7 1
6 6
5 4
4 6
4 6
1 6
4 0
1 3
1 3
1 8
6 8
4 0
0 1
0 4
3 6
2 3
0 8
8 4
0 6
2 0
0 5
14 4

8 7
8
0 2
2 2
6 6
2 2
7 1
5 3
0 2
1 1
9 3

8 6
18
6 2
6 3
2 0
0 1
3 4
4 0
1 4
7 2
2 0
2 4
1 1
7 5
5 0
1 2
3 2
0 2
2 3
7 0
20 3

9 5
16
5 1
7 2
2 0
0 0
2 1
3 0
4 2
1 2
2 2
8 1
2 4
3 2
1 1
1 3
7 0
1 2
6 4

9 8
18
1 4
4 7
3 5
3 4
4 2
6 5
0 0
2 0
7 7
5 6
4 7
2 6
2 4
5 5
8 5
3 3
1 7
3 6
8 5

6 8
15
1 2
1 0
0 5
0 7
1 5
0 5
0 0
0 6
0 0
5 2
2 6
2 5
0 4
5 6
3 0
11 5
