*** Life<ConwayCell> 13x9 ***

Generation = 0, Population = 1.
.....*...
.........
.........
.........
.........
.........
.........
.........
.........
.........
.........
.........
.........

Generation = 4, Population = 0.
.........
.........
.........
.........
.........
.........
.........
.........
.........
.........
.........
.........
.........

Generation = 8, Population = 0.
.........
.........
.........
.........
.........
.........
.........
.........
.........
.........
.........
.........
.........

Generation = 12, Population = 0.
.........
.........
.........
.........
.........
.........
.........
.........
.........
.........
.........
.........
.........

Generation = 16, Population = 0.
.........
.........
.........
.........
.........
.........
.........
.........
.........
.........
.........
.........
.........

Generation = 20, Population = 0.
.........
.........
.........
.........
.........
.........
.........
.........
.........
.........
.........
.........
.........

Generation = 24, Population = 0.
.........
.........
.........
.........
.........
.........
.........
.........
.........
.........
.........
.........
.........

Generation = 28, Population = 0.
.........
.........
.........
.........
.........
.........
.........
.........
.........
.........
.........
.........
.........

Generation = 32, Population = 0.
.........
.........
.........
.........
.........
.........
.........
.........
.........
.........
.........
.........
.........

Generation = 36, Population = 0.
.........
.........
.........
.........
.........
.........
.........
.........
.........
.........
.........
.........
.........

Generation = 40, Population = 0.
.........
.........
.........
.........
.........
.........
.........
.........
.........
.........
.........
.........
.........

Generation = 44, Population = 0.
.........
.........
.........
.........
.........
.........
.........
.........
.........
.........
.........
.........
.........

Generation = 48, Population = 0.
.........
.........
.........
.........
.........
.........
.........
.........
.........
.........
.........
.........
.........

Generation = 52, Population = 0.
.........
.........
.........
.........
.........
.........
.........
.........
.........
.........
.........
.........
.........

Generation = 56, Population = 0.
.........
.........
.........
.........
.........
.........
.........
.........
.........
.........
.........
.........
.........

Generation = 60, Population = 0.
.........
.........
.........
.........
.........
.........
.........
.........
.........
.........
.........
.........
.........

Generation = 64, Population = 0.
.........
.........
.........
.........
.........
.........
.........
.........
.........
.........
.........
.........
.........

Generation = 68, Population = 0.
.........
.........
.........
.........
.........
.........
.........
.........
.........
.........
.........
.........
.........

Generation = 72, Population = 0.
.........
.........
.........
.........
.........
.........
.........
.........
.........
.........
.........
.........
.........

Generation = 76, Population = 0.
.........
.........
.........
.........
.........
.........
.........
.........
.........
.........
.........
.........
.........

Generation = 80, Population = 0.
.........
.........
.........
.........
.........
.........
.........
.........
.........
.........
.........
.........
.........

*** Life<ConwayCell> 7x8 ***

Generation = 0, Population = 15.
..**....
*..*....
.*.*....
*.**....
...**...
...*....
...*.*.*

*** Life<ConwayCell> 7x10 ***

Generation = 0, Population = 4.
..........
..........
..........
....*.*...
.....*....
..........
*.........

Generation = 8, Population = 0.
..........
..........
..........
..........
..........
..........
..........

Generation = 16, Population = 0.
..........
..........
..........
..........
..........
..........
..........

Generation = 24, Population = 0.
..........
..........
..........
..........
..........
..........
..........

Generation = 32, Population = 0.
..........
..........
..........
..........
..........
..........
..........

Generation = 40, Population = 0.
..........
..........
..........
..........
..........
..........
..........

Generation = 48, Population = 0.
..........
..........
..........
..........
..........
..........
..........

Generation = 56, Population = 0.
..........
..........
..........
..........
..........
..........
..........

Generation = 64, Population = 0.
..........
..........
..........
..........
..........
..........
..........

Generation = 72, Population = 0.
..........
..........
..........
..........
..........
..........
..........

Generation = 80, Population = 0.
..........
..........
..........
..........
..........
..........
..........

Generation = 88, Population = 0.
..........
..........
..........
..........
..........
..........
..........

*** Life<ConwayCell> 2x1 ***

Generation = 0, Population = 2.
*
*

Generation = 9, Population = 0.
.
.

Generation = 18, Population = 0.
.
.

Generation = 27, Population = 0.
.
.

Generation = 36, Population = 0.
.
.

Generation = 45, Population = 0.
.
.

Generation = 54, Population = 0.
.
.

Generation = 63, Population = 0.
.
.

Generation = 72, Population = 0.
.
.

Generation = 81, Population = 0.
.
.

*** Life<ConwayCell> 4x7 ***

Generation = 0, Population = 15.
**.***.
**.*.*.
.***.*.
.**....

Generation = 17, Population = 0.
.......
.......
.......
.......

*** Life<ConwayCell> 12x9 ***

Generation = 0, Population = 14.
.........
.*.......
.........
......**.
....*....
.........
......*..
*........
*........
*..*..*..
.*.....*.
*...*....

Generation = 6, Population = 0.
.........
.........
.........
.........
.........
.........
.........
.........
.........
.........
.........
.........

Generation = 12, Population = 0.
.........
.........
.........
.........
.........
.........
.........
.........
.........
.........
.........
.........

Generation = 18, Population = 0.
.........
.........
.........
.........
.........
.........
.........
.........
.........
.........
.........
.........

Generation = 24, Population = 0.
.........
.........
.........
.........
.........
.........
.........
.........
.........
.........
.........
.........

Generation = 30, Population = 0.
.........
.........
.........
.........
.........
.........
.........
.........
.........
.........
.........
.........

Generation = 36, Population = 0.
.........
.........
.........
.........
.........
.........
.........
.........
.........
.........
.........
.........

Generation = 42, Population = 0.
.........
.........
.........
.........
.........
.........
.........
.........
.........
.........
.........
.........

Generation = 48, Population = 0.
.........
.........
.........
.........
.........
.........
.........
.........
.........
.........
.........
.........

Generation = 54, Population = 0.
.........
.........
.........
.........
.........
.........
.........
.........
.........
.........
.........
.........

Generation = 60, Population = 0.
.........
.........
.........
.........
.........
.........
.........
.........
.........
.........
.........
.........

Generation = 66, Population = 0.
.........
.........
.........
.........
.........
.........
.........
.........
.........
.........
.........
.........

Generation = 72, Population = 0.
.........
.........
.........
.........
.........
.........
.........
.........
.........
.........
.........
.........

*** Life<ConwayCell> 12x10 ***

Generation = 0, Population = 8.
..*.....*.
...*......
........*.
..........
..........
.......*..
......*...
..........
..........
..........
..........
........**

Generation = 15, Population = 0.
..........
..........
..........
..........
..........
..........
..........
..........
..........
..........
..........
..........

Generation = 30, Population = 0.
..........
..........
..........
..........
..........
..........
..........
..........
..........
..........
..........
..........

Generation = 45, Population = 0.
..........
..........
..........
..........
..........
..........
..........
..........
..........
..........
..........
..........

Generation = 60, Population = 0.
..........
..........
..........
..........
..........
..........
..........
..........
..........
..........
..........
..........

Generation = 75, Population = 0.
..........
..........
..........
..........
..........
..........
..........
..........
..........
..........
..........
..........
