*** Life<ConwayCell> 12x11 ***

Generation = 0, Population = 9.
......*.*..
...........
....*......
*..........
...........
...........
..*........
...........
...........
...*......*
.*.....*...
...........

Generation = 2, Population = 0.
...........
...........
...........
...........
...........
...........
...........
...........
...........
...........
...........
...........

Generation = 4, Population = 0.
...........
...........
...........
...........
...........
...........
...........
...........
...........
...........
...........
...........

*** Life<ConwayCell> 10x14 ***

Generation = 0, Population = 10.
............*.
..............
..**..........
....*.........
..*...........
...*........*.
.*............
........*.....
..............
.....*........

Generation = 2, Population = 4.
..............
..............
..............
..**..........
..**..........
..............
..............
..............
..............
..............

Generation = 4, Population = 4.
..............
..............
..............
..**..........
..**..........
..............
..............
..............
..............
..............

*** Life<ConwayCell> 15x13 ***

Generation = 0, Population = 11.
.....*.......
*............
.............
.*........*..
.............
...........*.
.............
.......*.....
....**.......
.............
.............
.*...........
.....*.......
.......*.....
.............

Generation = 2, Population = 0.
.............
.............
.............
.............
.............
.............
.............
.............
.............
.............
.............
.............
.............
.............
.............

Generation = 4, Population = 0.
.............
.............
.............
.............
.............
.............
.............
.............
.............
.............
.............
.............
.............
.............
.............

Generation = 6, Population = 0.
.............
.............
.............
.............
.............
.............
.............
.............
.............
.............
.............
.............
.............
.............
.............

Generation = 8, Population = 0.
.............
.............
.............
.............
.............
.............
.............
.............
.............
.............
.............
.............
.............
.............
.............

*** Life<ConwayCell> 11x10 ***

Generation = 0, Population = 9.
..........
....*.....
*.......*.
..........
..*...*...
....*...*.
..*.......
.....*....
..........
..........
..........

Generation = 2, Population = 0.
..........
..........
..........
..........
..........
..........
..........
..........
..........
..........
..........

*** Life<ConwayCell> 15x13 ***

Generation = 0, Population = 10.
.......*.....
.......*.*...
.............
.............
.............
.............
..*..........
.*...........
.............
....*.*......
........*...*
.............
.............
..........*..
.............

Generation = 1, Population = 2.
........*....
........*....
.............
.............
.............
.............
.............
.............
.............
.............
.............
.............
.............
.............
.............

Generation = 2, Population = 0.
.............
.............
.............
.............
.............
.............
.............
.............
.............
.............
.............
.............
.............
.............
.............

Generation = 3, Population = 0.
.............
.............
.............
.............
.............
.............
.............
.............
.............
.............
.............
.............
.............
.............
.............

Generation = 4, Population = 0.
.............
.............
.............
.............
.............
.............
.............
.............
.............
.............
.............
.............
.............
.............
.............

Generation = 5, Population = 0.
.............
.............
.............
.............
.............
.............
.............
.............
.............
.............
.............
.............
.............
.............
.............

Generation = 6, Population = 0.
.............
.............
.............
.............
.............
.............
.............
.............
.............
.............
.............
.............
.............
.............
.............

Generation = 7, Population = 0.
.............
.............
.............
.............
.............
.............
.............
.............
.............
.............
.............
.............
.............
.............
.............

*** Life<ConwayCell> 11x15 ***

Generation = 0, Population = 12.
...........*...
.............*.
.*............*
...............
............*.*
........*......
.*.*...........
...............
..*............
......*........
............*..

Generation = 1, Population = 2.
...............
...............
...............
.............*.
...............
...............
...............
..*............
...............
...............
...............

Generation = 2, Population = 0.
...............
...............
...............
...............
...............
...............
...............
...............
...............
...............
...............

Generation = 3, Population = 0.
...............
...............
...............
...............
...............
...............
...............
...............
...............
...............
...............

Generation = 4, Population = 0.
...............
...............
...............
...............
...............
...............
...............
...............
...............
...............
...............

*** Life<ConwayCell> 12x10 ***

Generation = 0, Population = 10.
.*.*.....*
......*...
..........
...*......
........*.
*......*..
..........
..........
..........
.......*..
..........
*.........

Generation = 2, Population = 0.
..........
..........
..........
..........
..........
..........
..........
..........
..........
..........
..........
..........

Generation = 4, Population = 0.
..........
..........
..........
..........
..........
..........
..........
..........
..........
..........
..........
..........

*** Life<ConwayCell> 13x15 ***

Generation = 0, Population = 10.
..........*....
..........**...
*..*...........
...............
.............*.
....*..........
...............
...............
...............
...............
...............
.*...........*.
.....*.........

Generation = 1, Population = 4.
..........**...
..........**...
...............
...............
...............
...............
...............
...............
...............
...............
...............
...............
...............

*** Life<ConwayCell> 11x13 ***

Generation = 0, Population = 11.
.............
.*.........*.
.............
.............
.........*.*.
....*........
.............
.............
.....*....*..
.....**......
.*.....*.....

Generation = 1, Population = 5.
.............
.............
.............
.............
.............
.............
.............
.............
.....**......
.....**......
......*......

*** Life<ConwayCell> 10x10 ***

Generation = 0, Population = 11.
..**......
..........
......*...
..........
.....*....
...*.....*
*........*
..*.......
..........
*.*.......

Generation = 1, Population = 1.
..........
..........
..........
..........
..........
..........
..........
..........
.*........
..........

Generation = 2, Population = 0.
..........
..........
..........
..........
..........
..........
..........
..........
..........
..........

Generation = 3, Population = 0.
..........
..........
..........
..........
..........
..........
..........
..........
..........
..........

Generation = 4, Population = 0.
..........
..........
..........
..........
..........
..........
..........
..........
..........
..........
