*** Life<FredkinCell> 11x12 ***

Generation = 0, Population = 9.
--0---------
------0-----
------------
------------
------------
-0----------
0-----------
-----0-----0
---------0--
--------0---
-------0----

*** Life<FredkinCell> 10x10 ***

Generation = 0, Population = 12.
0---0-0---
----------
-0--------
-----000--
------0---
--------00
----------
------0---
--0-------
----------

Generation = 1, Population = 35.
-0-0---0--
00--0-0---
0-0--000--
-0--01110-
------1-00
------0011
------0-00
--0--0-0--
-0-0--0---
--0-------

Generation = 2, Population = 25.
-1------0-
-----010--
1--00-----
---012-2--
-0--0---1-
-----01--2
--0---1---
----0----0
0---0-----
------0---

Generation = 3, Population = 49.
0-0--00--0
00-0-1-1--
-00--00---
000--3----
0-0-101---
-00--1-0--
-0-00-20--
0-00100-0-
-0-0100--0
0---00-0--

*** Life<FredkinCell> 13x14 ***

Generation = 0, Population = 13.
--00----------
----0-------0-
0-------------
---0----------
-------------0
----0---------
----0---------
-------------0
-0------------
--------------
-0---0--------
--------------
--------------

Generation = 1, Population = 41.
-011--------0-
0-0--0-----0-0
-0-00-------0-
0-0-0--------0
---00-------0-
---010-------0
---010-------0
-0--0-------0-
0-0----------0
-----0--------
0-0-0-0-------
-0---0--------
--------------

Generation = 2, Population = 39.
-12200--------
--10--0---0---
0--1---------0
-0---0------0-
0---1------0-0
--01--0------1
-00---0------1
----1------0-0
-0-000--------
-------------0
-0-----0------
--------------
-0---0--------

Generation = 3, Population = 69.
0233-1----0---
0--1---0-0-0-0
---2000---0---
0-00--0------0
--0---0---0-01
0--2-010---00-
01--1010---00-
--0-2-0---0--1
0--1110----0--
---000-0----0-
0-0---0-0----0
-----0-0------
0-0-0-0-------

Generation = 4, Population = 31.
------00-----0
1-------------
---3----------
-------0-----1
-010-----0-0--
1---1---0---1-
-2---1--0-----
---0-----0-0--
-0---2-------0
----1---------
----00---0----
-------------0
-----0--------

Generation = 5, Population = 68.
0----1110---0-
-0-1--00-----0
0-0-0--0-----0
-00---0-00-00-
-1-1---0-----1
-00----01----1
--00--101--00-
--0-2-------01
0-01--0--0-00-
-0-020---0---0
---0-10-0-0--0
----0----0--0-
----0-0------0

Generation = 6, Population = 84.
---3022210-0--
1-1----1-----1
--13-001-0-0-1
----00--11-111
0---1--100-0-2
1--2---1-0-0-2
--11-121-001-1
00---0-000-012
-0--1--001-1-0
--01--0--1-0-1
-001--1----0-1
----1------0-0
---01--0-0----

Generation = 7, Population = 89.
0--4---3-1--00
--210-0-----02
00-40---01-10-
0-0----0-2-2-2
11--2-0-11--0-
20-3-0--1-0---
--2----211-20-
1--0-1011101-3
-1------12--0-
-0---01--2----
011--120-00---
-0002000-001-1
--01-00---00-0

Generation = 8, Population = 36.
-2-5------00--
--3-----0---1-
-1---00-1----1
-----------3--
2----0-1------
--0-1---------
---1--------1-
-----2-2------
-201-----3----
----2-------0-
1----2---1---1
---1---------2
----1--------1

*** Life<FredkinCell> 14x15 ***

Generation = 0, Population = 12.
-------0-------
---------------
---------------
--------0------
---------------
------0--0-----
---------00----
---------------
---------------
--0------------
--00-----------
---------------
---------0-----
-0--0----------

Generation = 1, Population = 37.
------0-0------
-------0-------
--------0------
-------0-0-----
------0-00-----
-----0-001-----
------0-0-10---
---------00----
--0------------
-01------------
-0-10----------
--00-----0-----
-0--0---0-0----
0-00-0---0-----

*** Life<FredkinCell> 15x12 ***

Generation = 0, Population = 12.
------------
-------0----
------------
-----0------
---------0--
-------0----
---------0--
--0--------0
-----0-----0
------------
--0---------
------------
--------0---
------------
-----0------

*** Life<FredkinCell> 12x13 ***

Generation = 0, Population = 15.
-------------
-------------
-0----------0
-------------
----------0--
--0---------0
--0---0-0----
-0-----0-----
-----0-------
----00-------
-------------
------0-----0

Generation = 1, Population = 41.
-------------
-0----------0
0-0--------0-
-0--------0-0
--0------0-00
-010--0-0-00-
--10-0-0-0--0
0----0-------
-0---100-----
---01-0------
----000-----0
-----0-0---0-

Generation = 2, Population = 38.
-0----------0
-------------
---0--------0
--0---------1
-01---0------
01--0--0--1-0
0----10-0----
--000----0--0
--00--110----
-001--------0
-----1-------
-----10-0-0--

Generation = 3, Population = 60.
0-0--------0-
-0-0---------
----0------01
--1---0----02
---000----0--
---0--0--0---
1-100210--0--
00-11--00-00-
--11-12-1----
011-10000--0-
-00002--0-0-0
----0-1----0-

Generation = 4, Population = 51.
-0--------0-0
--0---------0
-00--00---0--
-0-----0-----
-----10-----0
0---001-0-1--
202-1-2---1--
-1-2-00----10
-0-------00--
122---1-10---
--1---0-1----
-00-11-00----

Generation = 5, Population = 76.
0--------0--1
-010-00----01
0--0011--0-01
01----0-0-0-2
00------0-00-
1-10-12---200
-1302--0002-0
--0-11-0-0021
---1-1----1-0
23-1-02------
00-00-10-----
01--2211-0---

*** Life<FredkinCell> 12x10 ***

Generation = 0, Population = 12.
----0-----
----------
-------0--
--00--0---
---0------
---0--0---
-------00-
----------
0---------
----------
----------
----0-----

Generation = 1, Population = 29.
---0-0----
----0--0--
--00----0-
-01-00----
----0-----
--0100--0-
---0---110
0------00-
-0--------
0---------
----0-----
---0-0----

Generation = 2, Population = 43.
--0-0-00--
--00--0---
---100---0
01-0-10-0-
-0---0--0-
-012110-1-
0--1-00--1
---0--0---
0-0----00-
----0-----
0---------
--0-0-0---

Generation = 3, Population = 47.
-010---10-
-0--0-1--0
00-2--0---
1--1021-1-
------00-0
---3----2-
----0-11--
---10-1-00
----0--110
--00-0-00-
-00---0---
00-----0--

Generation = 4, Population = 39.
0--1---21-
---0--2---
---30--000
2-1---20--
0---0--1--
--1----0--
---11--211
--021-2---
--001-----
---10-0---
-------00-
1-------0-

Generation = 5, Population = 50.
-0120--320
0-0--0-0-0
0---100--1
3----231-0
10-0-0--0-
00----0--0
--0--0---2
-0--2---00
-0--20----
--------0-
0--00--1-0
-0------10

Generation = 6, Population = 63.
-12-1-0---
101-01210-
-0032--00-
---1-34211
2----10--0
---3-1-0-1
00-1------
01-230-01-
0100-10--0
00-1-0----
--01100--1
--000---2-

Generation = 7, Population = 59.
----201-2-
2-201-32-0
--14-0011-
31-20-532-
-0--02-1--
-014-20--2
--------12
1203--212-
1--1221---
----0-0---
0---2111--
-0-1--00--

Generation = 8, Population = 26.
0-2----3--
---1--4---
---5-1----
4-1------1
---0---2-0
0--51-1--3
0----0----
----------
2---3-2-1-
----------
--------0-
--------2-

*** Life<FredkinCell> 14x10 ***

Generation = 0, Population = 12.
----------
0----0----
-0--------
----------
------0---
0---------
----------
0---------
--0-----0-
---0------
--------0-
-------0--
------0---
----------

Generation = 1, Population = 25.
0----0----
----0-0---
--0--0----
-0----0---
0----0-0--
-0----0---
----------
-00-----0-
00-----0-0
----0-----
---0-----0
----------
-----0----
------0---

Generation = 2, Population = 32.
-0--------
0-00---0--
---0--0---
-----0----
-0--0---0-
--0-------
--0---0-0-
--10------
1---0-0-0-
00---0-0--
--0-----0-
---0-0---0
----0-----
-------0--

Generation = 3, Population = 42.
---0---0--
-01-0---0-
0--10-----
-0-0----0-
0--0---0-0
--100-0---
-0---0---0
00-1------
2-0--0-0-0
-1----0-0-
0---------
----0-0---
-------0-0
----0-0-0-

*** Life<FredkinCell> 13x13 ***

Generation = 0, Population = 12.
-------------
--0----------
-------------
------0------
-------------
---------0---
0------------
-------------
--0-0--------
-----0-0----0
---0---------
--0-------0--
-------------

Generation = 2, Population = 37.
-------------
0---0-0------
-------------
--0-0---00---
0------------
------00---0-
0---0--------
-----0-0-0--0
--000-0------
--11-0-0-0--0
-00-11-------
0---00-00----
---0---------

*** Life<FredkinCell> 11x11 ***

Generation = 0, Population = 12.
-0---------
-------00--
-0---------
-----------
-----00-0--
-----------
-0---0-----
-----------
-----0-----
--------0--
-------0---

Generation = 1, Population = 34.
0-0----00--
------0110-
0-0----00--
-0---00-0--
----011--0-
-0----0-0--
0-0-0-0----
-0---------
----0-0-0--
-----0---0-
------0----

Generation = 2, Population = 30.
---0-------
-----01--10
-0-0-00-1--
-------01--
---012200-0
-----------
------100--
--------0--
-0-0-0-----
------0---0
-------0-0-
