10

11 12
10
5 1
7 5
1 6
6 0
9 8
0 2
0 2
8 9
10 7
7 11
1 2

10 10
12
3 7
5 8
5 9
3 5
8 2
0 0
0 4
4 6
7 6
3 6
2 1
0 6
3 1

13 14
13
3 3
7 13
2 0
1 4
1 12
8 1
0 2
10 5
5 4
10 1
4 13
0 3
6 4
8 1

14 15
12
6 10
12 9
13 4
0 7
6 9
9 2
5 6
10 2
13 1
5 9
10 3
3 8
1 1

15 12
14
12 8
8 5
5 7
7 11
7 2
1 7
10 2
3 5
3 5
4 9
6 9
6 9
8 11
14 5
1 2

12 13
15
11 6
6 6
6 8
11 12
2 1
7 7
4 10
2 12
6 2
7 1
5 2
8 5
9 4
9 5
5 12
5 1

12 10
12
5 6
11 4
6 7
2 7
6 8
8 0
3 2
4 3
0 4
5 3
3 3
3 6
8 1

14 10
12
1 5
10 8
4 6
9 3
2 1
7 0
11 7
8 2
5 0
1 0
8 8
12 6
3 1

13 13
12
11 10
6 0
3 6
9 7
11 2
8 2
5 9
9 5
1 2
10 3
8 4
9 12
2 2

11 11
13
4 6
9 8
2 1
0 1
6 5
8 5
6 1
4 8
1 7
6 5
10 7
1 8
4 5
2 1
